<?xml version="1.0" encoding="UTF-8"?>

<svg version="1.2" baseProfile="tiny" width="58mm" height="94mm" viewBox="0 0 5800 9400" preserveAspectRatio="xMidYMid" fill-rule="evenodd" stroke-width="28.222" stroke-linejoin="round" xmlns="http://www.w3.org/2000/svg" xmlns:xlink="http://www.w3.org/1999/xlink" xml:space="preserve">
 <defs>
  <font id="EmbeddedFont_1" horiz-adv-x="2048">
   <font-face font-family="Arimo embedded" units-per-em="2048" font-weight="normal" font-style="normal" ascent="1852" descent="423"/>
   <missing-glyph horiz-adv-x="2048" d="M 0,0 L 2047,0 2047,2047 0,2047 0,0 Z"/>
   <glyph unicode="9" horiz-adv-x="980" d="M 1042,733 C 1042,491 998,305 910,175 821,45 695,-20 532,-20 422,-20 334,3 268,50 201,96 154,171 125,274 L 297,301 C 333,184 412,125 535,125 638,125 718,173 775,269 832,365 861,502 864,680 837,620 792,572 727,536 662,499 591,481 514,481 387,481 286,524 210,611 134,698 96,813 96,956 96,1103 137,1219 220,1304 303,1388 418,1430 565,1430 722,1430 840,1372 921,1256 1002,1140 1042,966 1042,733 Z M 846,907 C 846,1020 820,1112 768,1181 716,1250 646,1284 559,1284 472,1284 404,1255 354,1196 304,1137 279,1057 279,956 279,853 304,772 354,713 404,653 472,623 557,623 609,623 657,635 702,659 747,682 782,716 808,759 833,802 846,852 846,907 Z"/>
   <glyph unicode="8" horiz-adv-x="980" d="M 1050,393 C 1050,263 1009,162 926,89 843,16 725,-20 570,-20 419,-20 302,16 217,87 132,158 89,260 89,391 89,483 115,560 168,623 221,686 288,724 370,737 L 370,741 C 293,759 233,798 189,858 144,918 122,988 122,1069 122,1176 162,1263 243,1330 323,1397 431,1430 566,1430 705,1430 814,1397 895,1332 975,1267 1015,1178 1015,1067 1015,986 993,916 948,856 903,796 842,758 765,743 L 765,739 C 855,724 925,686 975,625 1025,563 1050,486 1050,393 Z M 828,1057 C 828,1216 741,1296 566,1296 481,1296 417,1276 373,1236 328,1196 306,1136 306,1057 306,976 329,915 375,873 420,830 485,809 568,809 653,809 717,829 762,868 806,907 828,970 828,1057 Z M 863,410 C 863,497 837,563 785,608 733,652 660,674 566,674 475,674 403,650 352,603 301,555 275,489 275,406 275,212 374,115 572,115 670,115 743,139 791,186 839,233 863,307 863,410 Z"/>
   <glyph unicode="7" horiz-adv-x="954" d="M 1036,1263 C 892,1043 790,871 731,746 672,621 627,498 598,377 568,256 553,130 553,0 L 365,0 C 365,180 403,370 480,569 556,768 683,997 862,1256 L 105,1256 105,1409 1036,1409 1036,1263 Z"/>
   <glyph unicode="6" horiz-adv-x="980" d="M 1049,461 C 1049,312 1009,195 928,109 847,23 736,-20 594,-20 435,-20 314,39 230,157 146,275 104,447 104,672 104,916 148,1103 235,1234 322,1365 447,1430 608,1430 821,1430 955,1334 1010,1143 L 838,1112 C 803,1227 725,1284 606,1284 503,1284 424,1236 368,1141 311,1045 283,906 283,725 316,786 362,832 421,864 480,895 548,911 625,911 755,911 858,870 935,789 1011,708 1049,598 1049,461 Z M 866,453 C 866,555 841,634 791,689 741,744 671,772 582,772 498,772 430,748 379,699 327,650 301,582 301,496 301,387 328,298 382,229 435,160 504,125 588,125 675,125 743,154 792,213 841,271 866,351 866,453 Z"/>
   <glyph unicode="5" horiz-adv-x="980" d="M 1053,459 C 1053,310 1009,193 921,108 832,23 710,-20 553,-20 422,-20 316,9 235,66 154,123 103,206 82,315 L 264,336 C 302,197 400,127 557,127 654,127 729,156 784,215 839,273 866,353 866,455 866,544 839,615 784,670 729,725 654,752 561,752 512,752 467,744 425,729 383,714 341,688 299,651 L 123,651 170,1409 971,1409 971,1256 334,1256 307,809 C 385,869 482,899 598,899 737,899 847,858 930,777 1012,696 1053,590 1053,459 Z"/>
   <glyph unicode="4" horiz-adv-x="1060" d="M 881,319 L 881,0 711,0 711,319 47,319 47,459 692,1409 881,1409 881,461 1079,461 1079,319 881,319 Z M 711,1206 C 710,1202 700,1184 683,1153 666,1122 653,1100 644,1087 L 283,555 229,481 213,461 711,461 711,1206 Z"/>
   <glyph unicode="3" horiz-adv-x="1006" d="M 1049,389 C 1049,259 1008,158 925,87 842,16 724,-20 571,-20 428,-20 315,12 230,77 145,141 94,236 78,362 L 264,379 C 288,212 390,129 571,129 662,129 733,151 785,196 836,241 862,307 862,395 862,472 833,532 774,575 715,618 629,639 518,639 L 416,639 416,795 514,795 C 613,795 689,817 744,860 798,903 825,962 825,1038 825,1113 803,1173 759,1217 714,1260 648,1282 561,1282 482,1282 418,1262 369,1221 320,1180 291,1123 283,1049 L 102,1063 C 115,1178 163,1268 246,1333 328,1398 434,1430 563,1430 704,1430 814,1397 893,1332 971,1266 1010,1174 1010,1057 1010,967 985,894 935,838 884,781 811,743 715,723 L 715,719 C 820,708 902,672 961,613 1020,554 1049,479 1049,389 Z"/>
   <glyph unicode="2" horiz-adv-x="954" d="M 103,0 L 103,127 C 137,205 179,274 228,334 277,393 328,447 382,496 436,544 490,589 543,630 596,671 643,713 686,754 729,795 763,839 790,884 816,929 829,981 829,1038 829,1115 806,1175 761,1218 716,1261 653,1282 572,1282 495,1282 432,1261 383,1220 333,1178 304,1119 295,1044 L 111,1061 C 124,1174 172,1263 255,1330 337,1397 443,1430 572,1430 714,1430 823,1397 900,1330 976,1263 1014,1167 1014,1044 1014,989 1002,935 977,881 952,827 914,773 865,719 816,665 721,581 582,468 505,405 444,349 399,299 354,248 321,200 301,153 L 1036,153 1036,0 103,0 Z"/>
   <glyph unicode="1" horiz-adv-x="927" d="M 156,0 L 156,153 515,153 515,1237 197,1010 197,1180 530,1409 696,1409 696,153 1039,153 1039,0 156,0 Z"/>
   <glyph unicode="0" horiz-adv-x="980" d="M 1059,705 C 1059,470 1018,290 935,166 852,42 729,-20 567,-20 405,-20 283,42 202,165 121,288 80,468 80,705 80,947 120,1128 199,1249 278,1370 402,1430 573,1430 739,1430 862,1369 941,1247 1020,1125 1059,944 1059,705 Z M 876,705 C 876,908 853,1056 806,1147 759,1238 681,1284 573,1284 462,1284 383,1239 335,1149 286,1059 262,911 262,705 262,505 287,359 336,266 385,173 462,127 569,127 675,127 753,174 802,269 851,364 876,509 876,705 Z"/>
  </font>
 </defs>
 <g visibility="visible" id="MasterSlide_1_Default">
  <desc>Master slide
  </desc>
  <rect fill="none" stroke="none" x="0" y="0" width="5800" height="9400"/>
 </g>
 <g visibility="visible" id="Slide_1_page1">
  <g id="DrawingGroup_1">
   <g id="Drawing_1">
    <path fill="rgb(207,231,245)" stroke="none" d="M 650,1800 L 100,1800 100,100 1200,100 1200,1800 650,1800 Z"/>
    <path fill="none" stroke="rgb(0,0,0)" stroke-width="50" stroke-linejoin="round" d="M 650,1800 L 100,1800 100,100 1200,100 1200,1800 650,1800 Z"/>
    <g fill="rgb(26,26,26)" stroke="none" font-family="Arimo embedded" font-size="635" font-style="normal" font-weight="400">
     <text x="475" y="1171">1</text>
    </g>
   </g>
   <g id="Drawing_2">
    <path fill="rgb(204,255,204)" stroke="none" d="M 1850,1300 L 1300,1300 1300,100 2400,100 2400,1300 1850,1300 Z"/>
    <path fill="none" stroke="rgb(0,0,0)" stroke-width="50" stroke-linejoin="round" d="M 1850,1300 L 1300,1300 1300,100 2400,100 2400,1300 1850,1300 Z"/>
    <g fill="rgb(26,26,26)" stroke="none" font-family="Arimo embedded" font-size="635" font-style="normal" font-weight="400">
     <text x="1675" y="921">2</text>
    </g>
   </g>
   <g id="Drawing_3">
    <path fill="rgb(255,204,204)" stroke="none" d="M 3050,1700 L 2500,1700 2500,100 3600,100 3600,1700 3050,1700 Z"/>
    <path fill="none" stroke="rgb(0,0,0)" stroke-width="50" stroke-linejoin="round" d="M 3050,1700 L 2500,1700 2500,100 3600,100 3600,1700 3050,1700 Z"/>
    <g fill="rgb(26,26,26)" stroke="none" font-family="Arimo embedded" font-size="635" font-style="normal" font-weight="400">
     <text x="2875" y="1121">3</text>
    </g>
   </g>
   <g id="Drawing_4">
    <path fill="rgb(255,255,204)" stroke="none" d="M 4250,1500 L 3700,1500 3700,100 4800,100 4800,1500 4250,1500 Z"/>
    <path fill="none" stroke="rgb(0,0,0)" stroke-width="50" stroke-linejoin="round" d="M 4250,1500 L 3700,1500 3700,100 4800,100 4800,1500 4250,1500 Z"/>
    <g fill="rgb(26,26,26)" stroke="none" font-family="Arimo embedded" font-size="635" font-style="normal" font-weight="400">
     <text x="4075" y="1021">4</text>
    </g>
   </g>
   <g id="Drawing_5">
    <path fill="rgb(204,255,204)" stroke="none" d="M 1850,3100 L 1300,3100 1300,1300 2400,1300 2400,3100 1850,3100 Z"/>
    <path fill="none" stroke="rgb(0,0,0)" stroke-width="50" stroke-linejoin="round" d="M 1850,3100 L 1300,3100 1300,1300 2400,1300 2400,3100 1850,3100 Z"/>
    <g fill="rgb(26,26,26)" stroke="none" font-family="Arimo embedded" font-size="635" font-style="normal" font-weight="400">
     <text x="1675" y="2421">5</text>
    </g>
   </g>
   <g id="Drawing_6">
    <path fill="rgb(255,204,204)" stroke="none" d="M 3050,2400 L 2500,2400 2500,1700 3600,1700 3600,2400 3050,2400 Z"/>
    <path fill="none" stroke="rgb(0,0,0)" stroke-width="50" stroke-linejoin="round" d="M 3050,2400 L 2500,2400 2500,1700 3600,1700 3600,2400 3050,2400 Z"/>
    <g fill="rgb(26,26,26)" stroke="none" font-family="Arimo embedded" font-size="635" font-style="normal" font-weight="400">
     <text x="2875" y="2271">6</text>
    </g>
   </g>
   <g id="Drawing_7">
    <path fill="rgb(255,255,204)" stroke="none" d="M 4250,3400 L 3700,3400 3700,1500 4800,1500 4800,3400 4250,3400 Z"/>
    <path fill="none" stroke="rgb(0,0,0)" stroke-width="50" stroke-linejoin="round" d="M 4250,3400 L 3700,3400 3700,1500 4800,1500 4800,3400 4250,3400 Z"/>
    <g fill="rgb(26,26,26)" stroke="none" font-family="Arimo embedded" font-size="635" font-style="normal" font-weight="400">
     <text x="4075" y="2671">7</text>
    </g>
   </g>
   <g id="Drawing_8">
    <path fill="rgb(207,231,245)" stroke="none" d="M 650,2900 L 100,2900 100,1800 1200,1800 1200,2900 650,2900 Z"/>
    <path fill="none" stroke="rgb(0,0,0)" stroke-width="50" stroke-linejoin="round" d="M 650,2900 L 100,2900 100,1800 1200,1800 1200,2900 650,2900 Z"/>
    <g fill="rgb(26,26,26)" stroke="none" font-family="Arimo embedded" font-size="635" font-style="normal" font-weight="400">
     <text x="475" y="2571">8</text>
    </g>
   </g>
   <g id="Drawing_9">
    <path fill="rgb(255,204,204)" stroke="none" d="M 3050,3700 L 2500,3700 2500,2400 3600,2400 3600,3700 3050,3700 Z"/>
    <path fill="none" stroke="rgb(0,0,0)" stroke-width="50" stroke-linejoin="round" d="M 3050,3700 L 2500,3700 2500,2400 3600,2400 3600,3700 3050,3700 Z"/>
    <g fill="rgb(26,26,26)" stroke="none" font-family="Arimo embedded" font-size="635" font-style="normal" font-weight="400">
     <text x="2875" y="3271">9</text>
    </g>
   </g>
   <g id="Drawing_10">
    <path fill="rgb(207,231,245)" stroke="none" d="M 650,3600 L 100,3600 100,2900 1200,2900 1200,3600 650,3600 Z"/>
    <path fill="none" stroke="rgb(0,0,0)" stroke-width="50" stroke-linejoin="round" d="M 650,3600 L 100,3600 100,2900 1200,2900 1200,3600 650,3600 Z"/>
    <g fill="rgb(26,26,26)" stroke="none" font-family="Arimo embedded" font-size="635" font-style="normal" font-weight="400">
     <text x="298" y="3471">
      <tspan x="298 649">10</tspan></text>
    </g>
   </g>
   <g id="Drawing_11">
    <path fill="rgb(204,255,204)" stroke="none" d="M 1850,4300 L 1300,4300 1300,3100 2400,3100 2400,4300 1850,4300 Z"/>
    <path fill="none" stroke="rgb(0,0,0)" stroke-width="50" stroke-linejoin="round" d="M 1850,4300 L 1300,4300 1300,3100 2400,3100 2400,4300 1850,4300 Z"/>
    <g fill="rgb(26,26,26)" stroke="none" font-family="Arimo embedded" font-size="635" font-style="normal" font-weight="400">
     <text x="1522" y="3921">
      <tspan x="1522 1827">11</tspan></text>
    </g>
   </g>
   <g id="Drawing_12">
    <path fill="rgb(255,255,204)" stroke="none" d="M 4250,4100 L 3700,4100 3700,3400 4800,3400 4800,4100 4250,4100 Z"/>
    <path fill="none" stroke="rgb(0,0,0)" stroke-width="50" stroke-linejoin="round" d="M 4250,4100 L 3700,4100 3700,3400 4800,3400 4800,4100 4250,4100 Z"/>
    <g fill="rgb(26,26,26)" stroke="none" font-family="Arimo embedded" font-size="635" font-style="normal" font-weight="400">
     <text x="3898" y="3971">
      <tspan x="3898 4249">12</tspan></text>
    </g>
   </g>
   <g id="Drawing_13">
    <path fill="rgb(204,204,204)" stroke="none" d="M 1850,6200 L 1300,6200 1300,4300 2400,4300 2400,6200 1850,6200 Z"/>
    <path fill="none" stroke="rgb(0,0,0)" stroke-width="50" stroke-linejoin="round" d="M 1850,6200 L 1300,6200 1300,4300 2400,4300 2400,6200 1850,6200 Z"/>
    <g fill="rgb(26,26,26)" stroke="none" font-family="Arimo embedded" font-size="635" font-style="normal" font-weight="400">
     <text x="1498" y="5471">
      <tspan x="1498 1849">13</tspan></text>
    </g>
   </g>
   <g>
    <path fill="none" stroke="rgb(255,51,51)" id="Drawing_14_0" stroke-width="100" stroke-linejoin="round" d="M 100,4300 L 4800,4300"/>
   </g>
   <g id="Drawing_15">
    <path fill="rgb(207,231,245)" stroke="none" d="M 650,7000 L 100,7000 100,6200 1200,6200 1200,7000 650,7000 Z"/>
    <path fill="none" stroke="rgb(0,0,0)" stroke-width="50" stroke-linejoin="round" d="M 650,7000 L 100,7000 100,6200 1200,6200 1200,7000 650,7000 Z"/>
    <g fill="rgb(26,26,26)" stroke="none" font-family="Arimo embedded" font-size="635" font-style="normal" font-weight="400">
     <text x="298" y="6821">
      <tspan x="298 649">14</tspan></text>
    </g>
   </g>
   <g id="Drawing_16">
    <path fill="rgb(204,255,204)" stroke="none" d="M 1850,7900 L 1300,7900 1300,6200 2400,6200 2400,7900 1850,7900 Z"/>
    <path fill="none" stroke="rgb(0,0,0)" stroke-width="50" stroke-linejoin="round" d="M 1850,7900 L 1300,7900 1300,6200 2400,6200 2400,7900 1850,7900 Z"/>
    <g fill="rgb(26,26,26)" stroke="none" font-family="Arimo embedded" font-size="635" font-style="normal" font-weight="400">
     <text x="1498" y="7271">
      <tspan x="1498 1849">15</tspan></text>
    </g>
   </g>
   <g id="Drawing_17">
    <path fill="rgb(255,204,204)" stroke="none" d="M 3050,7400 L 2500,7400 2500,6200 3600,6200 3600,7400 3050,7400 Z"/>
    <path fill="none" stroke="rgb(0,0,0)" stroke-width="50" stroke-linejoin="round" d="M 3050,7400 L 2500,7400 2500,6200 3600,6200 3600,7400 3050,7400 Z"/>
    <g fill="rgb(26,26,26)" stroke="none" font-family="Arimo embedded" font-size="635" font-style="normal" font-weight="400">
     <text x="2698" y="7021">
      <tspan x="2698 3049">16</tspan></text>
    </g>
   </g>
   <g id="Drawing_18">
    <path fill="rgb(255,255,204)" stroke="none" d="M 4250,7700 L 3700,7700 3700,6200 4800,6200 4800,7700 4250,7700 Z"/>
    <path fill="none" stroke="rgb(0,0,0)" stroke-width="50" stroke-linejoin="round" d="M 4250,7700 L 3700,7700 3700,6200 4800,6200 4800,7700 4250,7700 Z"/>
    <g fill="rgb(26,26,26)" stroke="none" font-family="Arimo embedded" font-size="635" font-style="normal" font-weight="400">
     <text x="3898" y="7171">
      <tspan x="3898 4249">17</tspan></text>
    </g>
   </g>
   <g id="Drawing_19">
    <path fill="rgb(207,231,245)" stroke="none" d="M 650,8300 L 100,8300 100,7000 1200,7000 1200,8300 650,8300 Z"/>
    <path fill="none" stroke="rgb(0,0,0)" stroke-width="50" stroke-linejoin="round" d="M 650,8300 L 100,8300 100,7000 1200,7000 1200,8300 650,8300 Z"/>
    <g fill="rgb(26,26,26)" stroke="none" font-family="Arimo embedded" font-size="635" font-style="normal" font-weight="400">
     <text x="298" y="7871">
      <tspan x="298 649">18</tspan></text>
    </g>
   </g>
   <g id="Drawing_20">
    <path fill="rgb(255,204,204)" stroke="none" d="M 3050,8700 L 2500,8700 2500,7400 3600,7400 3600,8700 3050,8700 Z"/>
    <path fill="none" stroke="rgb(0,0,0)" stroke-width="50" stroke-linejoin="round" d="M 3050,8700 L 2500,8700 2500,7400 3600,7400 3600,8700 3050,8700 Z"/>
    <g fill="rgb(26,26,26)" stroke="none" font-family="Arimo embedded" font-size="635" font-style="normal" font-weight="400">
     <text x="2698" y="8271">
      <tspan x="2698 3049">19</tspan></text>
    </g>
   </g>
   <g id="Drawing_21">
    <path fill="rgb(255,255,204)" stroke="none" d="M 4250,8500 L 3700,8500 3700,7700 4800,7700 4800,8500 4250,8500 Z"/>
    <path fill="none" stroke="rgb(0,0,0)" stroke-width="50" stroke-linejoin="round" d="M 4250,8500 L 3700,8500 3700,7700 4800,7700 4800,8500 4250,8500 Z"/>
    <g fill="rgb(26,26,26)" stroke="none" font-family="Arimo embedded" font-size="635" font-style="normal" font-weight="400">
     <text x="3898" y="8321">
      <tspan x="3898 4249">20</tspan></text>
    </g>
   </g>
   <g id="DrawingGroup_2">
    <g>
     <path fill="rgb(0,0,0)" stroke="none" d="M 650,8500 L 600,8500 600,8400 700,8400 700,8500 650,8500 Z"/>
     <rect fill="none" stroke="none" x="600" y="8400" width="101" height="101"/>
    </g>
    <g>
     <path fill="rgb(0,0,0)" stroke="none" d="M 650,8700 L 600,8700 600,8600 700,8600 700,8700 650,8700 Z"/>
     <rect fill="none" stroke="none" x="600" y="8600" width="101" height="101"/>
    </g>
    <g>
     <path fill="rgb(0,0,0)" stroke="none" d="M 650,8900 L 600,8900 600,8800 700,8800 700,8900 650,8900 Z"/>
     <rect fill="none" stroke="none" x="600" y="8800" width="101" height="101"/>
    </g>
   </g>
   <g id="DrawingGroup_3">
    <g>
     <path fill="rgb(0,0,0)" stroke="none" d="M 1850,8100 L 1800,8100 1800,8000 1900,8000 1900,8100 1850,8100 Z"/>
     <rect fill="none" stroke="none" x="1800" y="8000" width="101" height="101"/>
    </g>
    <g>
     <path fill="rgb(0,0,0)" stroke="none" d="M 1850,8300 L 1800,8300 1800,8200 1900,8200 1900,8300 1850,8300 Z"/>
     <rect fill="none" stroke="none" x="1800" y="8200" width="101" height="101"/>
    </g>
    <g>
     <path fill="rgb(0,0,0)" stroke="none" d="M 1850,8500 L 1800,8500 1800,8400 1900,8400 1900,8500 1850,8500 Z"/>
     <rect fill="none" stroke="none" x="1800" y="8400" width="101" height="101"/>
    </g>
   </g>
   <g id="DrawingGroup_4">
    <g>
     <path fill="rgb(0,0,0)" stroke="none" d="M 3050,8900 L 3000,8900 3000,8800 3100,8800 3100,8900 3050,8900 Z"/>
     <rect fill="none" stroke="none" x="3000" y="8800" width="101" height="101"/>
    </g>
    <g>
     <path fill="rgb(0,0,0)" stroke="none" d="M 3050,9100 L 3000,9100 3000,9000 3100,9000 3100,9100 3050,9100 Z"/>
     <rect fill="none" stroke="none" x="3000" y="9000" width="101" height="101"/>
    </g>
    <g>
     <path fill="rgb(0,0,0)" stroke="none" d="M 3050,9300 L 3000,9300 3000,9200 3100,9200 3100,9300 3050,9300 Z"/>
     <rect fill="none" stroke="none" x="3000" y="9200" width="101" height="101"/>
    </g>
   </g>
   <g id="DrawingGroup_5">
    <g>
     <path fill="rgb(0,0,0)" stroke="none" d="M 4250,8700 L 4200,8700 4200,8600 4300,8600 4300,8700 4250,8700 Z"/>
     <rect fill="none" stroke="none" x="4200" y="8600" width="101" height="101"/>
    </g>
    <g>
     <path fill="rgb(0,0,0)" stroke="none" d="M 4250,8900 L 4200,8900 4200,8800 4300,8800 4300,8900 4250,8900 Z"/>
     <rect fill="none" stroke="none" x="4200" y="8800" width="101" height="101"/>
    </g>
    <g>
     <path fill="rgb(0,0,0)" stroke="none" d="M 4250,9100 L 4200,9100 4200,9000 4300,9000 4300,9100 4250,9100 Z"/>
     <rect fill="none" stroke="none" x="4200" y="9000" width="101" height="101"/>
    </g>
   </g>
   <g>
    <path fill="none" stroke="rgb(255,51,51)" id="Drawing_34_0" stroke-width="100" stroke-linejoin="round" d="M 100,6200 L 4800,6200"/>
   </g>
   <g>
    <path fill="rgb(153,255,204)" stroke="none" d="M 5154,100 L 5154,8824 4900,8824 5300,9301 5701,8824 5447,8824 5447,100 5154,100 Z"/>
    <path fill="none" stroke="rgb(0,0,0)" id="Drawing_35_0" stroke-width="50" stroke-linejoin="round" d="M 5154,100 L 5154,8824 4900,8824 5300,9301 5701,8824 5447,8824 5447,100 5154,100 Z"/>
    <rect fill="none" stroke="none" x="4900" y="100" width="801" height="9201"/>
   </g>
  </g>
 </g>
</svg>